RTqPCR_20221014
…
Create Plateplan 4 hours

list target_ids of primer sets

colkey <- create_colkey_6_in_24(target_id = c("Gat201", "Gat204", "Liv3", "SRP14", "ACT1", "GDP1"))

print(colkey)

## # A tibble: 24 x 4
##    well_col prep_type tech_rep target_id
##    <fct>    <fct>     <fct>    <chr>    
##  1 1        +RT       1        Gat201   
##  2 2        +RT       1        Gat204   
##  3 3        +RT       1        Liv3     
##  4 4        +RT       1        SRP14    
##  5 5        +RT       1        ACT1     
##  6 6        +RT       1        GDP1     
##  7 7        +RT       2        Gat201   
##  8 8        +RT       2        Gat204   
##  9 9        +RT       2        Liv3     
## 10 10       +RT       2        SRP14    
## # ... with 14 more rows
…
Plateplan

plate <- label_plate_rowcol(
  plate = create_blank_plate(well_row = LETTERS[1:15], well_col = 1:24),
  rowkey = rowkey,
  colkey = colkey
)

print(plate)

## # A tibble: 360 x 7
##    well  well_row well_col prep_type tech_rep target_id sample_id
##    <chr> <fct>    <fct>    <fct>     <fct>    <chr>     <chr>    
##  1 A1    A        1        +RT       1        Gat201    H99-1    
##  2 A2    A        2        +RT       1        Gat204    H99-1    
##  3 A3    A        3        +RT       1        Liv3      H99-1    
##  4 A4    A        4        +RT       1        SRP14     H99-1    
##  5 A5    A        5        +RT       1        ACT1      H99-1    
##  6 A6    A        6        +RT       1        GDP1      H99-1    
##  7 A7    A        7        +RT       2        Gat201    H99-1    
##  8 A8    A        8        +RT       2        Gat204    H99-1    
##  9 A9    A        9        +RT       2        Liv3      H99-1    
## 10 A10   A        10       +RT       2        SRP14     H99-1    
## # ... with 350 more rows
…
Load data for plate

plate <- read_tsv( "../Input/20221014_ComplementCheck_EH_Ct.txt",  
                    skip=1) %>%
    mutate(well=Pos,cq=Cp) %>%
    right_join(plate)

plate

## # A tibble: 360 x 16
##    Include Color Pos   Name         Cp Concentration Standard Status well     cq
##    <lgl>   <dbl> <chr> <chr>     <dbl> <lgl>            <dbl> <lgl>  <chr> <dbl>
##  1 TRUE      255 A1    Sample 1   18.7 NA                   0 NA     A1     18.7
##  2 TRUE      255 A2    Sample 2   21.6 NA                   0 NA     A2     21.6
##  3 TRUE      255 A3    Sample 3   19.9 NA                   0 NA     A3     19.9
##  4 TRUE      255 A4    Sample 4   23.4 NA                   0 NA     A4     23.4
##  5 TRUE      255 A5    Sample 5   17.4 NA                   0 NA     A5     17.4
##  6 TRUE      255 A6    Sample 6   22.6 NA                   0 NA     A6     22.6
##  7 TRUE      255 A7    Sample 7   18.3 NA                   0 NA     A7     18.3
##  8 TRUE      255 A8    Sample 8   21.7 NA                   0 NA     A8     21.7
##  9 TRUE      255 A9    Sample 9   20.3 NA                   0 NA     A9     20.3
## 10 TRUE      255 A10   Sample 10  23.4 NA                   0 NA     A10    23.4
## # ... with 350 more rows, and 6 more variables: well_row <fct>, well_col <fct>,
## #   prep_type <fct>, tech_rep <fct>, target_id <chr>, sample_id <chr>
…
Normalise data with 3 reference genes

plate_norm <- plate_sep %>%
  group_by(sample_id)%>%
  filter(prep_type == "+RT" )%>%
  calculate_deltacq_bysampleid(ref_target_ids = c("SRP14", "ACT1", "GDP1"))

plate_norm

## # A tibble: 270 x 21
##    Include Color Pos   Name         Cp Concentration Standard Status well     cq
##    <lgl>   <dbl> <chr> <chr>     <dbl> <lgl>            <dbl> <lgl>  <chr> <dbl>
##  1 TRUE      255 J1    Sample 2~  21.2 NA                   0 NA     J1     21.2
##  2 TRUE      255 J2    Sample 2~  20.3 NA                   0 NA     J2     20.3
##  3 TRUE      255 J3    Sample 2~  18.6 NA                   0 NA     J3     18.6
##  4 TRUE      255 J4    Sample 2~  21.9 NA                   0 NA     J4     21.9
##  5 TRUE      255 J5    Sample 2~  15.6 NA                   0 NA     J5     15.6
##  6 TRUE      255 J6    Sample 2~  20.2 NA                   0 NA     J6     20.2
##  7 TRUE      255 J7    Sample 2~  21.4 NA                   0 NA     J7     21.4
##  8 TRUE      255 J8    Sample 2~  20.3 NA                   0 NA     J8     20.3
##  9 TRUE      255 J9    Sample 2~  18.7 NA                   0 NA     J9     18.7
## 10 TRUE      255 J10   Sample 2~  21.8 NA                   0 NA     J10    21.8
## # ... with 260 more rows, and 11 more variables: well_row <fct>,
## #   well_col <fct>, prep_type <fct>, tech_rep <fct>, target_id <chr>,
## #   sample_id <chr>, Sample <chr>, BioRep <chr>, ref_cq <dbl>, delta_cq <dbl>,
## #   rel_abund <dbl>
…
